…
sanfran3 <- 
  sanfran2 |> 
  mutate(ID = 1:n()) |>
  left_join(as_tibble(x)) |>
  rename(ndvi = lyr1)
```

    ## Joining, by = "ID"

``` r
sanfran3
```

    ## # A tibble: 97 × 7
    ##    name  holc_id holc_grade area_descrip…¹                  geometry    ID  ndvi
    ##    <chr> <chr>   <chr>      <chr>                 <MULTIPOLYGON [m]> <dbl> <dbl>
    ##  1 <NA>  A1      A          "{ \"1\": \"T… (((546179 4182298, 54618…     1 0.341
    ##  2 <NA>  A10     A          "{ \"1\": \"T… (((547501.7 4176623, 547…     2 0.456
    ##  3 <NA>  A11     A          "{ \"1\": \"T… (((547912.6 4177158, 547…     3 0.432
    ##  4 <NA>  A12     A          "{ \"1\": \"T… (((546565.3 4176352, 547…     4 0.290
    ##  5 <NA>  A13     A          "{ \"1\": \"T… (((547490.7 4176630, 547…     5 0.364
    ##  6 <NA>  A2      A          "{ \"1\": \"T… (((547607.8 4182425, 547…     6 0.418
    ##  7 <NA>  A3      A          "{ \"1\": \"T… (((548669.3 4182608, 548…     7 0.309
    ##  8 <NA>  A4      A          "{ \"1\": \"T… (((548766.7 4184200, 548…     8 0.245
    ##  9 <NA>  A5      A          "{ \"1\": \"T… (((548749.9 4182867, 548…     9 0.316
    ## 10 <NA>  A6      A          "{ \"1\": \"T… (((546426.9 4176500, 546…    10 0.330
    ## # … with 87 more rows, and abbreviated variable name ¹​area_description_data
…
denver3 <- 
  denver2 |> 
  mutate(ID = 1:n()) |>
  left_join(as_tibble(x)) |>
  rename(ndvi = lyr1)
```

    ## Joining, by = "ID"

``` r
denver3
```

    ## # A tibble: 54 × 7
    ##    name  holc_id holc_grade area_descrip…¹                  geometry    ID  ndvi
    ##    <chr> <chr>   <chr>      <chr>                 <MULTIPOLYGON [m]> <dbl> <dbl>
    ##  1 <NA>  A1      A          "{ \"0\": \"D… (((507869.8 4399741, 507…     1   NaN
    ##  2 <NA>  A2      A          "{ \"0\": \"D… (((506665.8 4398738, 506…     2   NaN
    ##  3 <NA>  A3      A          "{ \"0\": \"D… (((507472.7 4397282, 507…     3   NaN
    ##  4 <NA>  A4      A          "{ \"0\": \"D… (((503414.2 4397694, 503…     4   NaN
    ##  5 <NA>  A5      A          "{ \"0\": \"D… (((503465.7 4397087, 503…     5   NaN
    ##  6 <NA>  A6      A          "{ \"0\": \"D… (((503984 4394092, 50387…     6   NaN
    ##  7 <NA>  B1      B          "{ \"0\": \"D… (((506159.4 4399815, 506…     7   NaN
    ##  8 <NA>  B10     B          "{ \"0\": \"D… (((496633.6 4399343, 496…     8   NaN
    ##  9 <NA>  B11     B          "{ \"0\": \"D… (((495490.1 4401402, 496…     9   NaN
    ## 10 <NA>  B12     B          "{ \"\": \"\"… (((497832.3 4401487, 497…    10   NaN
    ## # … with 44 more rows, and abbreviated variable name ¹​area_description_data
…
